…
  rename(day_type = day) %>% 
  pivot_longer(
    c(activity_1:activity_1440),
    names_to = "minute", 
    values_to = "activity_counts",
    names_prefix = 'activity_') %>% 
  mutate(
    weekday_vs_weekend = ifelse((day_type == "Saturday" | day_type == "Sunday"), "weekend", "weekday"),
    activity_counts = as.double(activity_counts),
    minute = as.integer(minute))
# show the cleaned data
accel_data
```

    ## # A tibble: 50,400 × 6
    ##     week day_id day_type minute activity_counts weekday_vs_weekend
    ##    <dbl>  <dbl> <chr>     <int>           <dbl> <chr>             
    ##  1     1      1 Friday        1            88.4 weekday           
    ##  2     1      1 Friday        2            82.2 weekday           
    ##  3     1      1 Friday        3            64.4 weekday           
    ##  4     1      1 Friday        4            70.0 weekday           
    ##  5     1      1 Friday        5            75.0 weekday           
    ##  6     1      1 Friday        6            66.3 weekday           
    ##  7     1      1 Friday        7            53.8 weekday           
    ##  8     1      1 Friday        8            47.8 weekday           
    ##  9     1      1 Friday        9            55.5 weekday           
    ## 10     1      1 Friday       10            43.0 weekday           
    ## # … with 50,390 more rows
…
